A workflow for creating translation tables • transcats
…
The transcats package is designed to make it easy to
translated categorical, tabular data (and other data with repeated
values) between multiple languages.

Set-Up

For this example, we’ll create a translation table for the variables
in gss_cat, a data table from the General Social Survey
that is include in the package forcats. Here’s a look at
gss_cat:

library(forcats) # loads gss_cat

forcats::gss_cat
#> # A tibble: 21,483 × 9
#>     year marital         age race  rincome        partyid    relig denom tvhours
#>    <int> <fct>         <int> <fct> <fct>          <fct>      <fct> <fct>   <int>
#>  1  2000 Never married    26 White $8000 to 9999  Ind,near … Prot… Sout…      12
#>  2  2000 Divorced         48 White $8000 to 9999  Not str r… Prot… Bapt…      NA
#>  3  2000 Widowed          67 White Not applicable Independe… Prot… No d…       2
#>  4  2000 Never married    39 White Not applicable Ind,near … Orth… Not …       4
#>  5  2000 Divorced         25 White Not applicable Not str d… None  Not …       1
#>  6  2000 Married          25 White $20000 - 24999 Strong de… Prot… Sout…      NA
#>  7  2000 Never married    36 White $25000 or more Not str r… Chri… Not …       3
#>  8  2000 Divorced         44 White $7000 to 7999  Ind,near … Prot… Luth…      NA
#>  9  2000 Married          44 White $25000 or more Not str d… Prot… Other       0
#> 10  2000 Married          47 White $25000 or more Strong re… Prot… Sout…       3
#> # ℹ 21,473 more rows
…
#>  4 Christian               Cristiano              Chrétien                
#>  5 Jewish                  Judío                  Juif                    
#>  6 Catholic                Católico               Catholique              
#>  7 Other                   Otro                   Autre                   
#>  8 Inter-nondenominational Interconfesional       Interconfessionnel      
#>  9 Hinduism                Hindú                  Hindou                  
#> 10 Native american         Indígena americano     Amérindien              
#> 11 No answer               Sin respuesta          Pas de réponse          
#> 12 Buddhism                Budista                Bouddhiste              
#> 13 Moslem/islam            Musulmán               Musulman                
#> 14 Other eastern           Otra religión oriental Autre religion orientale
#> 15 Don't know              No sabe                Ne sait pas             
#> 
#> $denom
#> # A tibble: 30 × 3
#>    en                es                               fr                        
#>    <chr>             <chr>                            <chr>                     
#>  1 Southern baptist  Bautista del Sur                 Baptiste du Sud           
#>  2 Baptist-dk which  Bautista, no sabe cuál           Baptiste, ne sait pas leq…
#>  3 No denomination   Sin denominación                 Aucune dénomination       
#>  4 Not applicable    No corresponde                   Sans objet                
#>  5 Lutheran-mo synod Sínodo luterano-misuri           Synode luthérien-Missouri 
#>  6 Other             Otro                             Autre                     
#>  7 United methodist  Metodista unido                  Méthodiste uni            
#>  8 Episcopal         Episcopal                        Épiscopal                 
#>  9 Other lutheran    Otro luterano                    Autre luthérien           
#> 10 Afr meth ep zion  African Methodist Episcopal Zion Méthodiste africain Épisc…
#> # ℹ 20 more rows
…
